Analysis Serlo event log
…
## # A tibble: 1 x 1
##    mean
##   <dbl>
## 1  1.00

Authors dont really tend to spend multiple edits on one content-object, but instead to edit a multiply of content. This is very homogeneous with a standard-deviation of 0.0036982 and 0.9697885% of authors for which this is exactly equal to 1. I look at the other ones. For them their edits are

events %>% inner_join(events_by_active_authors %>% group_by(actor_id, uuid_id) %>% summarize(n=n()) %>% filter(n!=1), by=c("uuid_id", "actor_id")) %>% group_by(actor_id, uuid_id, date) %>% summarise(n=n()) 

## `summarise()` regrouping output by 'actor_id' (override with `.groups` argument)

## `summarise()` regrouping output by 'actor_id', 'uuid_id' (override with `.groups` argument)

## # A tibble: 124 x 4
## # Groups:   actor_id, uuid_id [70]
##    actor_id uuid_id date           n
##       <int>   <int> <date>     <int>
##  1      266    2423 2017-09-22     2
##  2      266    2427 2017-09-22     2
##  3      266    8911 2017-09-19     3
##  4      266   10973 2017-09-04     4
##  5      266   14623 2016-05-04     5
##  6      266   15401 2017-11-27     3
##  7      266   21782 2017-11-27     3
##  8      266   51983 2016-02-25     1
##  9      266   51983 2016-02-26     1
## 10      266   51989 2016-02-25     1
## #  with 114 more rows
…
